{
  "nodes": [
    {
      "id": "0-0",
      "title": "stihl.de",
      "label": "stihl.de",
      "shape": "dot",
      "size": 30,
      "count": 1,
      "color": {
        "background": "#F5BA3D"
      }
    },
    {
      "id": "0-1",
      "title": "Google Universal Analytics (analytics.js) (analytics.js)",
      "label": "Google Universal Analytics (analytics.js) (analytics.js)",
      "shape": "dot",
      "size": 42,
      "count": 113,
      "color": {
        "background": "#1969EC"
      }
    },
    {
      "id": "1-1",
      "title": "Google Tag Manager (gtm.js)",
      "label": "Google Tag Manager (gtm.js)",
      "shape": "dot",
      "size": 81,
      "count": 230,
      "color": {
        "background": "#1969EC"
      }
    },
    {
      "id": "2-2",
      "title": "Google Adwords Conversion (conversion_async.js)",
      "label": "Google Adwords Conversion (conversion_async.js)",
      "shape": "dot",
      "size": 42,
      "count": 113,
      "color": {
        "background": "#1969EC"
      }
    },
    {
      "id": "2-3",
      "title": "Google Adwords Remarketing",
      "label": "Google Adwords Remarketing",
      "shape": "dot",
      "size": 79,
      "count": 224,
      "color": {
        "background": "#1969EC"
      }
    },
    {
      "id": "3-1",
      "title": "DoubleClick Floodlight",
      "label": "DoubleClick Floodlight",
      "shape": "dot",
      "size": 43,
      "count": 116,
      "color": {
        "background": "#1969EC"
      }
    },
    {
      "id": "4-2",
      "title": "Bing Ads Universal Event Tracking (UET) (bat.js)",
      "label": "Bing Ads Universal Event Tracking (UET) (bat.js)",
      "shape": "dot",
      "size": 42,
      "count": 113,
      "color": {
        "background": "#1969EC"
      }
    },
    {
      "id": "4-3",
      "title": "Bing Ads Universal Event Tracking (UET)",
      "label": "Bing Ads Universal Event Tracking (UET)",
      "shape": "dot",
      "size": 43,
      "count": 115,
      "color": {
        "background": "#1969EC"
      }
    },
    {
      "id": "5-2",
      "title": "Google Universal Analytics (analytics.js)",
      "label": "Google Universal Analytics (analytics.js)",
      "shape": "dot",
      "size": 240,
      "count": 707,
      "color": {
        "background": "#1969EC"
      }
    },
    {
      "id": "7-2",
      "title": "Google Optimize",
      "label": "Google Optimize",
      "shape": "dot",
      "size": 44,
      "count": 118,
      "color": {
        "background": "#1969EC"
      }
    },
    {
      "id": "8-2",
      "title": "Google Universal Analytics (analytics.js) (linkid.js)",
      "label": "Google Universal Analytics (analytics.js) (linkid.js)",
      "shape": "dot",
      "size": 42,
      "count": 112,
      "color": {
        "background": "#1969EC"
      }
    },
    {
      "id": "97-1",
      "title": "Google Maps",
      "label": "Google Maps",
      "shape": "dot",
      "size": 15,
      "count": 32,
      "color": {
        "background": "#1969EC"
      }
    },
    {
      "id": "97-2",
      "title": "maps.googleapis.com (places_impl.js)",
      "label": "maps.googleapis.com (places_impl.js)",
      "shape": "dot",
      "size": 5,
      "count": 1,
      "color": {
        "background": "#1969EC"
      }
    },
    {
      "id": "97-3",
      "title": "Google Maps (powered-by-google-on-white3.png)",
      "label": "Google Maps (powered-by-google-on-white3.png)",
      "shape": "dot",
      "size": 7,
      "count": 8,
      "color": {
        "background": "#1969EC"
      }
    },
    {
      "id": "99-2",
      "title": "Google Maps (AuthenticationService.Authenticate)",
      "label": "Google Maps (AuthenticationService.Authenticate)",
      "shape": "dot",
      "size": 8,
      "count": 10,
      "color": {
        "background": "#1969EC"
      }
    },
    {
      "id": "111-1",
      "title": "Google Web Font",
      "label": "Google Web Font",
      "shape": "dot",
      "size": 7,
      "count": 7,
      "color": {
        "background": "#1969EC"
      }
    },
    {
      "id": "112-3",
      "title": "Google Maps (autocomplete-icons.png)",
      "label": "Google Maps (autocomplete-icons.png)",
      "shape": "dot",
      "size": 7,
      "count": 8,
      "color": {
        "background": "#1969EC"
      }
    },
    {
      "id": "168-2",
      "title": "Facebook Pixel (fbevents.js)",
      "label": "Facebook Pixel (fbevents.js)",
      "shape": "dot",
      "size": 7,
      "count": 9,
      "color": {
        "background": "#1969EC"
      }
    },
    {
      "id": "168-3",
      "title": "Facebook Social Plugins",
      "label": "Facebook Social Plugins",
      "shape": "dot",
      "size": 7,
      "count": 8,
      "color": {
        "background": "#1969EC"
      }
    },
    {
      "id": "169-2",
      "title": "geoPlugin (json.gp)",
      "label": "geoPlugin (json.gp)",
      "shape": "dot",
      "size": 7,
      "count": 8,
      "color": {
        "background": "#1969EC"
      }
    },
    {
      "id": "170-3",
      "title": "Facebook Pixel",
      "label": "Facebook Pixel",
      "shape": "dot",
      "size": 7,
      "count": 9,
      "color": {
        "background": "#1969EC"
      }
    },
    {
      "id": "176-1",
      "title": "maps.google.com",
      "label": "maps.google.com",
      "shape": "dot",
      "size": 5,
      "count": 1,
      "color": {
        "background": "#1969EC"
      }
    },
    {
      "id": "176-2",
      "title": "maps.google.com (places_impl.js)",
      "label": "maps.google.com (places_impl.js)",
      "shape": "dot",
      "size": 5,
      "count": 1,
      "color": {
        "background": "#1969EC"
      }
    },
    {
      "id": "370-2",
      "title": "maps.googleapis.com (common.js)",
      "label": "maps.googleapis.com (common.js)",
      "shape": "dot",
      "size": 5,
      "count": 1,
      "color": {
        "background": "#1969EC"
      }
    },
    {
      "id": "382-1",
      "title": "Google Adwords Conversion (conversion.js)",
      "label": "Google Adwords Conversion (conversion.js)",
      "shape": "dot",
      "size": 5,
      "count": 1,
      "color": {
        "background": "#1969EC"
      }
    },
    {
      "id": "464-2",
      "title": "maps.googleapis.com (controls.js)",
      "label": "maps.googleapis.com (controls.js)",
      "shape": "dot",
      "size": 5,
      "count": 1,
      "color": {
        "background": "#1969EC"
      }
    },
    {
      "id": "464-3",
      "title": "Google Maps (transparent.png)",
      "label": "Google Maps (transparent.png)",
      "shape": "dot",
      "size": 5,
      "count": 2,
      "color": {
        "background": "#1969EC"
      }
    },
    {
      "id": "467-2",
      "title": "maps.googleapis.com (util.js)",
      "label": "maps.googleapis.com (util.js)",
      "shape": "dot",
      "size": 5,
      "count": 1,
      "color": {
        "background": "#1969EC"
      }
    },
    {
      "id": "467-3",
      "title": "Google Maps (google4.png)",
      "label": "Google Maps (google4.png)",
      "shape": "dot",
      "size": 5,
      "count": 2,
      "color": {
        "background": "#1969EC"
      }
    },
    {
      "id": "468-3",
      "title": "Google Maps (mapcnt6.png)",
      "label": "Google Maps (mapcnt6.png)",
      "shape": "dot",
      "size": 5,
      "count": 2,
      "color": {
        "background": "#1969EC"
      }
    },
    {
      "id": "469-3",
      "title": "Google Maps (sv9.png)",
      "label": "Google Maps (sv9.png)",
      "shape": "dot",
      "size": 5,
      "count": 2,
      "color": {
        "background": "#1969EC"
      }
    },
    {
      "id": "470-3",
      "title": "Google Maps (tmapctrl.png)",
      "label": "Google Maps (tmapctrl.png)",
      "shape": "dot",
      "size": 5,
      "count": 2,
      "color": {
        "background": "#1969EC"
      }
    },
    {
      "id": "472-2",
      "title": "Google Adwords Conversion",
      "label": "Google Adwords Conversion",
      "shape": "dot",
      "size": 5,
      "count": 1,
      "color": {
        "background": "#1969EC"
      }
    },
    {
      "id": "478-2",
      "title": "Criteo (ld.js)",
      "label": "Criteo (ld.js)",
      "shape": "dot",
      "size": 5,
      "count": 3,
      "color": {
        "background": "#1969EC"
      }
    },
    {
      "id": "478-3",
      "title": "sslwidget.criteo.com",
      "label": "sslwidget.criteo.com",
      "shape": "dot",
      "size": 5,
      "count": 1,
      "color": {
        "background": "#1969EC"
      }
    },
    {
      "id": "478-4",
      "title": "Criteo",
      "label": "Criteo",
      "shape": "dot",
      "size": 5,
      "count": 2,
      "color": {
        "background": "#1969EC"
      }
    },
    {
      "id": "479-2",
      "title": "Google Maps (ViewportInfoService.GetViewportInfo)",
      "label": "Google Maps (ViewportInfoService.GetViewportInfo)",
      "shape": "dot",
      "size": 5,
      "count": 2,
      "color": {
        "background": "#1969EC"
      }
    },
    {
      "id": "486-2",
      "title": "maps.googleapis.com (map.js)",
      "label": "maps.googleapis.com (map.js)",
      "shape": "dot",
      "size": 5,
      "count": 1,
      "color": {
        "background": "#1969EC"
      }
    },
    {
      "id": "486-3",
      "title": "Google Maps (openhand_8_8.cur)",
      "label": "Google Maps (openhand_8_8.cur)",
      "shape": "dot",
      "size": 5,
      "count": 2,
      "color": {
        "background": "#1969EC"
      }
    },
    {
      "id": "499-2",
      "title": "Google Maps (QuotaService.RecordEvent)",
      "label": "Google Maps (QuotaService.RecordEvent)",
      "shape": "dot",
      "size": 5,
      "count": 1,
      "color": {
        "background": "#1969EC"
      }
    },
    {
      "id": "567-2",
      "title": "Google Adwords Audience Tracker",
      "label": "Google Adwords Audience Tracker",
      "shape": "dot",
      "size": 5,
      "count": 3,
      "color": {
        "background": "#1969EC"
      }
    },
    {
      "id": "568-2",
      "title": "DoubleClick",
      "label": "DoubleClick",
      "shape": "dot",
      "size": 9,
      "count": 13,
      "color": {
        "background": "#1969EC"
      }
    },
    {
      "id": "577-3",
      "title": "cm.g.doubleclick.net",
      "label": "cm.g.doubleclick.net",
      "shape": "dot",
      "size": 5,
      "count": 1,
      "color": {
        "background": "#1969EC"
      }
    },
    {
      "id": "577-4",
      "title": "ad.360yield.com",
      "label": "ad.360yield.com",
      "shape": "dot",
      "size": 5,
      "count": 1,
      "color": {
        "background": "#1969EC"
      }
    },
    {
      "id": "577-5",
      "title": "Improve Digital",
      "label": "Improve Digital",
      "shape": "dot",
      "size": 6,
      "count": 4,
      "color": {
        "background": "#1969EC"
      }
    },
    {
      "id": "578-4",
      "title": "Index Exchange",
      "label": "Index Exchange",
      "shape": "dot",
      "size": 6,
      "count": 4,
      "color": {
        "background": "#1969EC"
      }
    },
    {
      "id": "812-4",
      "title": "PubMatic",
      "label": "PubMatic",
      "shape": "dot",
      "size": 5,
      "count": 3,
      "color": {
        "background": "#1969EC"
      }
    },
    {
      "id": "822-4",
      "title": "OpenX",
      "label": "OpenX",
      "shape": "dot",
      "size": 5,
      "count": 3,
      "color": {
        "background": "#1969EC"
      }
    },
    {
      "id": "919-4",
      "title": "AppNexus",
      "label": "AppNexus",
      "shape": "dot",
      "size": 5,
      "count": 3,
      "color": {
        "background": "#1969EC"
      }
    },
    {
      "id": "926-4",
      "title": "Rubicon Project (tap.php)",
      "label": "Rubicon Project (tap.php)",
      "shape": "dot",
      "size": 5,
      "count": 3,
      "color": {
        "background": "#1969EC"
      }
    },
    {
      "id": "1910-1",
      "title": "www.stihl.de",
      "label": "www.stihl.de",
      "shape": "dot",
      "size": 5,
      "count": 1,
      "color": {
        "background": "#1969EC"
      }
    },
    {
      "id": "1928-1",
      "title": "static.stihl.com (lib.min.js)",
      "label": "static.stihl.com (lib.min.js)",
      "shape": "dot",
      "size": 5,
      "count": 1,
      "color": {
        "background": "#1969EC"
      }
    },
    {
      "id": "1975-1",
      "title": "job.stihl.de (online-bewerbung-ssl.aspx)",
      "label": "job.stihl.de (online-bewerbung-ssl.aspx)",
      "shape": "dot",
      "size": 5,
      "count": 1,
      "color": {
        "background": "#1969EC"
      }
    },
    {
      "id": "1975-2",
      "title": "www.stihl.de (stellenangebote.aspx)",
      "label": "www.stihl.de (stellenangebote.aspx)",
      "shape": "dot",
      "size": 5,
      "count": 1,
      "color": {
        "background": "#1969EC"
      }
    },
    {
      "id": "2040-2",
      "title": "Google Maps (StaticMapService.GetMapImage)",
      "label": "Google Maps (StaticMapService.GetMapImage)",
      "shape": "dot",
      "size": 5,
      "count": 1,
      "color": {
        "background": "#1969EC"
      }
    },
    {
      "id": "2102-2",
      "title": "Google Classic Analytics (ga.js)",
      "label": "Google Classic Analytics (ga.js)",
      "shape": "dot",
      "size": 5,
      "count": 1,
      "color": {
        "background": "#1969EC"
      }
    }
  ],
  "edges": [
    {
      "from": "0-0",
      "to": "0-1",
      "arrows": "to",
      "frequency": 1016,
      "label": "(1016)",
      "width": 21
    },
    {
      "from": "0-0",
      "to": "1-1",
      "arrows": "to",
      "frequency": 868,
      "label": "(868)",
      "width": 18
    },
    {
      "from": "1-1",
      "to": "2-2",
      "arrows": "to",
      "frequency": 336,
      "label": "(336)",
      "width": 7
    },
    {
      "from": "2-2",
      "to": "2-3",
      "arrows": "to",
      "frequency": 224,
      "label": "(224)",
      "width": 5
    },
    {
      "from": "0-0",
      "to": "3-1",
      "arrows": "to",
      "frequency": 114,
      "label": "(114)",
      "width": 3
    },
    {
      "from": "1-1",
      "to": "4-2",
      "arrows": "to",
      "frequency": 227,
      "label": "(227)",
      "width": 5
    },
    {
      "from": "4-2",
      "to": "4-3",
      "arrows": "to",
      "frequency": 115,
      "label": "(115)",
      "width": 3
    },
    {
      "from": "0-1",
      "to": "5-2",
      "arrows": "to",
      "frequency": 707,
      "label": "(707)",
      "width": 15
    },
    {
      "from": "0-1",
      "to": "7-2",
      "arrows": "to",
      "frequency": 115,
      "label": "(115)",
      "width": 3
    },
    {
      "from": "0-1",
      "to": "8-2",
      "arrows": "to",
      "frequency": 112,
      "label": "(112)",
      "width": 3
    },
    {
      "from": "0-0",
      "to": "97-1",
      "arrows": "to",
      "frequency": 63,
      "label": "(63)",
      "width": 2
    },
    {
      "from": "97-1",
      "to": "97-2",
      "arrows": "to",
      "frequency": 8,
      "label": "(8)",
      "width": 1
    },
    {
      "from": "97-2",
      "to": "97-3",
      "arrows": "to",
      "frequency": 4,
      "label": "(4)",
      "width": 1
    },
    {
      "from": "97-1",
      "to": "99-2",
      "arrows": "to",
      "frequency": 6,
      "label": "(6)",
      "width": 1
    },
    {
      "from": "1-1",
      "to": "7-2",
      "arrows": "to",
      "frequency": 3,
      "label": "(3)",
      "width": 1
    },
    {
      "from": "0-0",
      "to": "111-1",
      "arrows": "to",
      "frequency": 5,
      "label": "(5)",
      "width": 1
    },
    {
      "from": "97-2",
      "to": "112-3",
      "arrows": "to",
      "frequency": 4,
      "label": "(4)",
      "width": 1
    },
    {
      "from": "1-1",
      "to": "168-2",
      "arrows": "to",
      "frequency": 25,
      "label": "(25)",
      "width": 1
    },
    {
      "from": "168-2",
      "to": "168-3",
      "arrows": "to",
      "frequency": 8,
      "label": "(8)",
      "width": 1
    },
    {
      "from": "1-1",
      "to": "169-2",
      "arrows": "to",
      "frequency": 5,
      "label": "(5)",
      "width": 1
    },
    {
      "from": "168-2",
      "to": "170-3",
      "arrows": "to",
      "frequency": 9,
      "label": "(9)",
      "width": 1
    },
    {
      "from": "0-0",
      "to": "176-1",
      "arrows": "to",
      "frequency": 12,
      "label": "(12)",
      "width": 1
    },
    {
      "from": "176-1",
      "to": "176-2",
      "arrows": "to",
      "frequency": 8,
      "label": "(8)",
      "width": 1
    },
    {
      "from": "176-2",
      "to": "112-3",
      "arrows": "to",
      "frequency": 4,
      "label": "(4)",
      "width": 1
    },
    {
      "from": "176-2",
      "to": "97-3",
      "arrows": "to",
      "frequency": 4,
      "label": "(4)",
      "width": 1
    },
    {
      "from": "176-1",
      "to": "99-2",
      "arrows": "to",
      "frequency": 4,
      "label": "(4)",
      "width": 1
    },
    {
      "from": "1-1",
      "to": "0-1",
      "arrows": "to",
      "frequency": 22,
      "label": "(22)",
      "width": 1
    },
    {
      "from": "97-1",
      "to": "370-2",
      "arrows": "to",
      "frequency": 27,
      "label": "(27)",
      "width": 1
    },
    {
      "from": "370-2",
      "to": "97-1",
      "arrows": "to",
      "frequency": 25,
      "label": "(25)",
      "width": 1
    },
    {
      "from": "0-0",
      "to": "382-1",
      "arrows": "to",
      "frequency": 2,
      "label": "(2)",
      "width": 1
    },
    {
      "from": "97-1",
      "to": "464-2",
      "arrows": "to",
      "frequency": 2,
      "label": "(2)",
      "width": 1
    },
    {
      "from": "464-2",
      "to": "464-3",
      "arrows": "to",
      "frequency": 2,
      "label": "(2)",
      "width": 1
    },
    {
      "from": "370-2",
      "to": "111-1",
      "arrows": "to",
      "frequency": 2,
      "label": "(2)",
      "width": 1
    },
    {
      "from": "97-1",
      "to": "467-2",
      "arrows": "to",
      "frequency": 8,
      "label": "(8)",
      "width": 1
    },
    {
      "from": "467-2",
      "to": "467-3",
      "arrows": "to",
      "frequency": 2,
      "label": "(2)",
      "width": 1
    },
    {
      "from": "467-2",
      "to": "468-3",
      "arrows": "to",
      "frequency": 2,
      "label": "(2)",
      "width": 1
    },
    {
      "from": "467-2",
      "to": "469-3",
      "arrows": "to",
      "frequency": 2,
      "label": "(2)",
      "width": 1
    },
    {
      "from": "467-2",
      "to": "470-3",
      "arrows": "to",
      "frequency": 2,
      "label": "(2)",
      "width": 1
    },
    {
      "from": "382-1",
      "to": "472-2",
      "arrows": "to",
      "frequency": 1,
      "label": "(1)",
      "width": 1
    },
    {
      "from": "1-1",
      "to": "478-2",
      "arrows": "to",
      "frequency": 4,
      "label": "(4)",
      "width": 1
    },
    {
      "from": "478-2",
      "to": "478-3",
      "arrows": "to",
      "frequency": 2,
      "label": "(2)",
      "width": 1
    },
    {
      "from": "478-3",
      "to": "478-4",
      "arrows": "to",
      "frequency": 2,
      "label": "(2)",
      "width": 1
    },
    {
      "from": "97-1",
      "to": "479-2",
      "arrows": "to",
      "frequency": 2,
      "label": "(2)",
      "width": 1
    },
    {
      "from": "97-1",
      "to": "486-2",
      "arrows": "to",
      "frequency": 2,
      "label": "(2)",
      "width": 1
    },
    {
      "from": "486-2",
      "to": "486-3",
      "arrows": "to",
      "frequency": 2,
      "label": "(2)",
      "width": 1
    },
    {
      "from": "97-1",
      "to": "499-2",
      "arrows": "to",
      "frequency": 1,
      "label": "(1)",
      "width": 1
    },
    {
      "from": "0-1",
      "to": "567-2",
      "arrows": "to",
      "frequency": 3,
      "label": "(3)",
      "width": 1
    },
    {
      "from": "1-1",
      "to": "568-2",
      "arrows": "to",
      "frequency": 30,
      "label": "(30)",
      "width": 1
    },
    {
      "from": "0-1",
      "to": "568-2",
      "arrows": "to",
      "frequency": 3,
      "label": "(3)",
      "width": 1
    },
    {
      "from": "568-2",
      "to": "577-3",
      "arrows": "to",
      "frequency": 20,
      "label": "(20)",
      "width": 1
    },
    {
      "from": "577-3",
      "to": "577-4",
      "arrows": "to",
      "frequency": 4,
      "label": "(4)",
      "width": 1
    },
    {
      "from": "577-4",
      "to": "577-5",
      "arrows": "to",
      "frequency": 4,
      "label": "(4)",
      "width": 1
    },
    {
      "from": "577-3",
      "to": "578-4",
      "arrows": "to",
      "frequency": 4,
      "label": "(4)",
      "width": 1
    },
    {
      "from": "577-3",
      "to": "812-4",
      "arrows": "to",
      "frequency": 3,
      "label": "(3)",
      "width": 1
    },
    {
      "from": "577-3",
      "to": "822-4",
      "arrows": "to",
      "frequency": 3,
      "label": "(3)",
      "width": 1
    },
    {
      "from": "577-3",
      "to": "919-4",
      "arrows": "to",
      "frequency": 3,
      "label": "(3)",
      "width": 1
    },
    {
      "from": "577-3",
      "to": "926-4",
      "arrows": "to",
      "frequency": 3,
      "label": "(3)",
      "width": 1
    },
    {
      "from": "0-0",
      "to": "1910-1",
      "arrows": "to",
      "frequency": 16,
      "label": "(16)",
      "width": 1
    },
    {
      "from": "1910-1",
      "to": "1-1",
      "arrows": "to",
      "frequency": 7,
      "label": "(7)",
      "width": 1
    },
    {
      "from": "1910-1",
      "to": "0-1",
      "arrows": "to",
      "frequency": 8,
      "label": "(8)",
      "width": 1
    },
    {
      "from": "1910-1",
      "to": "3-1",
      "arrows": "to",
      "frequency": 1,
      "label": "(1)",
      "width": 1
    },
    {
      "from": "0-0",
      "to": "1928-1",
      "arrows": "to",
      "frequency": 3,
      "label": "(3)",
      "width": 1
    },
    {
      "from": "1928-1",
      "to": "169-2",
      "arrows": "to",
      "frequency": 3,
      "label": "(3)",
      "width": 1
    },
    {
      "from": "0-0",
      "to": "1975-1",
      "arrows": "to",
      "frequency": 16,
      "label": "(16)",
      "width": 1
    },
    {
      "from": "1975-1",
      "to": "1975-2",
      "arrows": "to",
      "frequency": 16,
      "label": "(16)",
      "width": 1
    },
    {
      "from": "1975-2",
      "to": "0-1",
      "arrows": "to",
      "frequency": 8,
      "label": "(8)",
      "width": 1
    },
    {
      "from": "1975-2",
      "to": "1-1",
      "arrows": "to",
      "frequency": 7,
      "label": "(7)",
      "width": 1
    },
    {
      "from": "1975-2",
      "to": "3-1",
      "arrows": "to",
      "frequency": 1,
      "label": "(1)",
      "width": 1
    },
    {
      "from": "97-1",
      "to": "2040-2",
      "arrows": "to",
      "frequency": 1,
      "label": "(1)",
      "width": 1
    },
    {
      "from": "0-1",
      "to": "2102-2",
      "arrows": "to",
      "frequency": 1,
      "label": "(1)",
      "width": 1
    }
  ]
}
